<?xml version="1.0" encoding="UTF-8"?>
<svg width="326px" height="144px" viewBox="0 0 326 144" version="1.1" xmlns="http://www.w3.org/2000/svg" xmlns:xlink="http://www.w3.org/1999/xlink">
    <!-- Generator: Sketch 47.1 (45422) - http://www.bohemiancoding.com/sketch -->
    <title>logo-obra-social-lacaixa</title>
    <desc>Created with Sketch.</desc>
    <defs></defs>
    <g id="Page-1" stroke="none" stroke-width="1" fill="none" fill-rule="evenodd">
        <g id="logo-obra-social-lacaixa">
            <polygon id="Fill-1" fill="#000000" points="0.9526 108.6885 323.1586 108.6885 323.1586 108.2023 0.9526 108.2023"></polygon>
            <polygon id="Fill-2" fill="#000000" points="0.9526 109.1704 323.1586 109.1704 323.1586 108.6884 0.9526 108.6884"></polygon>
            <path d="M207.836,1.005 C207.412,8.453 201.285,13.475 198.061,19.764 C196.685,23.517 193.411,25.737 191.086,29.118 C188.97,31.283 186.91,33.661 185.164,36.095 C185.483,37.837 187.33,38.314 188.387,39.583 C190.767,41.01 191.031,43.705 193.092,45.3434 C194.309,45.3434 194.309,47.1399 195.627,46.9279 C198.43,49.9414 200.701,53.0578 203.026,56.3337 C203.396,57.4983 203.979,58.6589 204.982,59.5066 C206.833,62.2011 208.365,65.0552 210.266,67.8041 C210.531,70.8681 213.12,72.929 213.914,75.7828 C215.076,77.3149 215.551,79.1112 216.608,80.6451 C218.249,84.2399 219.357,87.9921 221.313,91.4255 C221.682,92.2186 221.208,93.0117 220.784,93.595 C220.045,94.1744 219.462,93.1168 218.618,93.2743 C214.283,91.6898 210.161,89.4152 206.145,86.985 C202.023,83.6566 197.478,81.281 193.411,77.7893 C191.824,77.3693 191.191,75.5204 189.709,74.7796 C185.801,72.3494 182.679,68.8597 178.717,66.5871 C176.921,65.2146 175.124,63.8925 173.328,62.4655 C171.953,62.3061 171.477,60.7196 170.155,60.2472 C167.198,58.4489 164.502,55.9644 161.49,54.273 C161.224,54.6968 161.49,55.3325 161.224,55.7543 C159.217,57.7101 159.746,60.7196 158.319,62.8893 C158.265,66.0078 156.099,68.2784 155.201,71.0275 C152.716,75.466 150.55,80.0094 147.961,84.3993 C144.523,88.9427 142.677,94.4387 137.812,98.0841 C136.755,99.407 135.542,100.0914 134.219,100.9391 C133.638,100.7796 132.792,100.8846 132.635,100.1458 C132.054,99.0337 132.792,97.3433 131.999,96.3421 C132.688,94.8082 132.264,93.0663 132.581,91.3709 L132.318,90.6341 C132.369,88.3071 133.533,86.3531 133.057,83.9735 C133.691,82.4939 133.955,80.8571 134.115,79.2181 C134.853,77.2098 135.487,75.0442 135.701,72.8744 C136.385,71.6069 136.652,69.9698 136.492,68.4905 C137.021,67.1158 137.126,65.479 138.555,64.4738 C138.765,63.5756 138.555,62.6755 138.71,61.7267 C140.14,57.3914 141.883,53.2173 142.992,48.7788 C142.992,48.4618 142.677,48.3549 142.463,48.3024 C139.344,48.1449 136.44,48.7788 133.533,47.9856 C128.776,47.9331 123.968,47.2974 119.423,46.3446 C117.574,45.9753 115.354,46.1891 113.662,45.1316 C112.552,45.186 111.282,45.396 110.229,44.8147 C108.059,43.755 105.419,43.9145 103.251,42.754 C101.612,42.966 100.45,41.908 98.9722,41.749 C97.5434,41.856 96.752,40.641 95.7469,39.847 L95.7469,39.369 C98.3891,35.776 102.618,34.773 106.422,33.401 C110.174,32.236 114.35,32.133 118.258,31.338 C120.743,30.916 123.439,31.6 125.922,31.181 C130.415,31.283 134.748,32.024 139.189,32.133 C140.666,32.343 142.043,33.029 143.52,32.977 L143.468,32.343 L139.294,26.635 C137.707,22.937 134.801,19.819 133.796,15.907 C132.847,14.745 133.745,12.999 133.004,11.731 C132.952,11.152 133.426,10.728 133.691,10.254 C134.589,9.884 135.596,10.516 136.492,9.935 C139.189,10.569 141.673,11.521 144.366,12.05 C147.167,13.158 150.021,14.27 152.506,16.119 C155.625,18.337 159.377,19.764 161.807,23.198 C162.441,23.781 163.444,23.886 164.291,23.676 C165.03,23.569 165.19,22.671 165.874,22.408 C169.152,20.348 172.85,19.183 176.077,16.91 C177.397,15.588 179.51,15.433 180.303,13.633 C181.307,13.158 182.205,12.525 183.262,12.262 C185.113,10.94 186.96,9.513 188.97,8.453 C190.028,8.35 190.872,7.767 191.719,7.186 C194.997,5.39 198.43,3.91 201.549,1.851 C202.237,0 204.294,0.422 205.776,0 C206.514,0.16 207.521,0.053 207.836,1.005 Z" id="Fill-3" fill="#00AEEF"></path>
            <path d="M129.464,52.1072 C130.522,52.846 130.467,54.3273 131.42,55.0661 L131.894,58.344 L129.515,61.8317 C126.505,63.4181 122.014,64.1043 119.211,61.5673 C117.626,60.1402 117.204,58.0796 117.626,56.0187 L118.736,53.0052 C119.37,52.5816 120.214,52.4765 120.638,51.7377 C122.117,50.7851 124.021,50.9971 125.712,50.6276 C126.98,51.0515 128.881,50.3652 129.464,52.1072 Z" id="Fill-4" fill="#FFCB04"></path>
            <path d="M121.643,71.3969 C122.594,71.3969 123.282,72.085 124.18,71.9256 C125.448,72.4 125.288,73.9321 126.61,74.3054 C127.613,76.3117 128.247,78.4775 128.776,80.6451 C128.407,81.9126 129.464,82.6534 129.093,83.816 L129.464,84.0279 C129.515,85.243 129.359,86.6195 128.881,87.7781 C129.093,89.9985 127.983,91.8493 127.034,93.7525 C126.346,94.1744 126.029,95.3895 125.078,95.1775 C123.385,95.7065 123.227,98.2416 121.167,97.9246 C119.845,98.9288 118.048,98.3505 116.464,98.401 C115.563,97.9246 114.296,98.0315 113.662,97.2384 C112.076,96.6045 110.649,95.4419 109.276,94.2795 C108.747,93.1168 107.53,92.5881 107.373,91.266 C107.849,89.6815 106.844,88.2565 107.27,86.67 L106.951,84.0279 L107.954,79.4845 C109.646,78.5824 109.171,76.5215 110.861,75.8899 C111.916,73.4577 114.455,72.929 116.409,71.7118 C117.15,71.5563 118.048,71.9782 118.63,71.2919 C119.685,71.1325 120.692,72.2425 121.643,71.3969 Z" id="Fill-5" fill="#ED1C24"></path>
            <path d="M197.707,117.1804 C198.695,120.5282 196.175,123.0477 195.351,126.0069 C195.133,126.4422 194.535,126.2284 194.146,126.1701 L194.041,125.898 C194.367,123.596 196.121,121.4614 195.079,118.9923 C194.807,118.0046 193.104,118.0046 193.547,116.85 C193.819,116.4689 193.819,115.8118 194.422,115.8661 C195.685,115.7029 197.381,115.6483 197.707,117.1804 Z" id="Fill-6" fill="#000000"></path>
            <path d="M199.663,118.1796 C201.024,117.9853 204.088,116.9043 205.091,115.8155 L205.877,115.8155 C205.834,117.9115 205.721,121.7141 205.721,125.2836 L205.721,140.339 C205.721,141.6611 206.032,142.3609 207.226,142.5514 L207.226,143.329 C206.067,143.329 204.905,143.2163 203.738,143.2163 C202.614,143.2163 201.522,143.329 200.406,143.329 L200.406,142.5514 C201.642,142.3609 201.949,141.6611 201.949,140.8056 L201.949,128.2309 C201.949,125.9836 201.759,123.075 201.642,121.6014 C201.564,120.0072 200.903,119.0741 199.663,119.0741 L199.663,118.1796 Z" id="Fill-7" fill="#000000"></path>
            <path d="M210.29,131.2948 L210.29,127.6166 C211.919,127.146 213.47,126.9166 215.298,126.9166 C218.751,126.9166 221.698,127.8499 221.698,131.7264 C221.698,133.1261 221.577,135.1404 221.538,137.3528 L221.538,138.7097 C221.538,140.4945 221.857,141.0039 222.709,141.0039 C222.899,141.0039 223.253,140.9261 223.522,140.8445 L224.101,141.4278 L221.196,143.7568 C219.719,143.5663 218.556,142.8235 218.09,141.8554 C216.772,142.8235 215.535,143.7568 213.82,143.7568 C211.184,143.7568 208.579,142.1237 208.579,139.2542 C208.579,135.1404 212.498,133.55 216.033,133.55 C216.655,133.55 217.308,133.6666 217.853,133.6666 C217.853,131.5747 217.701,129.2457 215.065,129.2457 C213.159,129.2457 212.191,129.86 211.219,131.2948 L210.29,131.2948 Z M217.853,135.0626 C217.429,134.9887 216.69,134.8721 215.994,134.8721 C214.201,134.8721 212.347,135.8014 212.347,138.2859 C212.347,140.0706 213.747,141.4278 215.372,141.4278 C216.577,141.4278 217.351,141.1594 217.973,140.7706 L217.853,135.0626 Z" id="Fill-8" fill="#000000"></path>
            <path d="M255.312,122.0368 L253.644,122.0368 C252.412,118.3041 248.515,116.8265 245.102,116.8265 C238.188,116.8265 235.326,122.3946 235.326,129.0669 C235.326,140.2729 243.43,142.1821 246.727,142.1821 C249.95,142.1821 252.851,140.7901 254.597,138.01 L255.829,138.527 L254.597,142.9324 C251.42,143.5352 249.433,143.854 246.847,143.854 C235.004,143.854 229.805,136.5402 229.805,129.3856 C229.805,121.2008 236.12,115.1623 245.024,115.1623 C250.188,115.1623 252.174,116.0333 254.997,116.7526 L255.312,122.0368 Z" id="Fill-9" fill="#000000"></path>
            <path d="M259.815,131.2948 L259.815,127.6166 C261.444,127.146 262.995,126.9166 264.823,126.9166 C268.276,126.9166 271.223,127.8499 271.223,131.7264 C271.223,133.1261 271.11,135.1404 271.071,137.3528 L271.071,138.7097 C271.071,140.4945 271.379,141.0039 272.234,141.0039 C272.428,141.0039 272.775,140.9261 273.05,140.8445 L273.634,141.4278 L270.718,143.7568 C269.248,143.5663 268.081,142.8235 267.619,141.8554 C266.297,142.8235 265.056,143.7568 263.345,143.7568 C260.709,143.7568 258.112,142.1237 258.112,139.2542 C258.112,135.1404 262.031,133.55 265.558,133.55 C266.18,133.55 266.841,133.6666 267.385,133.6666 C267.385,131.5747 267.23,129.2457 264.594,129.2457 C262.692,129.2457 261.716,129.86 260.744,131.2948 L259.815,131.2948 Z M267.385,135.0626 C266.958,134.9887 266.219,134.8721 265.519,134.8721 C263.734,134.8721 261.876,135.8014 261.876,138.2859 C261.876,140.0706 263.271,141.4278 264.901,141.4278 C266.102,141.4278 266.88,141.1594 267.502,140.7706 L267.385,135.0626 Z" id="Fill-10" fill="#000000"></path>
            <path d="M279.952,126.9166 C279.952,128.5419 280.104,131.9597 280.104,135.1404 L280.104,140.8056 C280.104,142.1237 280.726,142.322 281.62,142.5514 L281.62,143.329 C280.458,143.329 279.291,143.2163 278.133,143.2163 C277.087,143.2163 276.033,143.2864 274.983,143.329 L274.983,142.5514 C275.916,142.322 276.344,142.1237 276.344,140.8056 L276.344,135.9959 C276.344,133.2002 276.111,131.6525 275.792,130.8321 C275.489,130.0583 275.096,129.7902 274.17,129.6307 L274.17,128.8569 C275.955,128.4293 278.012,127.6905 279.175,126.9166 L279.952,126.9166 Z M278.055,120.3532 C279.175,120.3532 280.182,121.1736 280.182,122.3402 C280.182,123.4988 279.175,124.3155 278.055,124.3155 C276.923,124.3155 275.916,123.4988 275.916,122.3402 C275.916,121.1736 276.923,120.3532 278.055,120.3532 Z" id="Fill-11" fill="#000000"></path>
            <path d="M283.553,142.5514 C284.793,142.3609 285.61,141.3888 286.119,140.7318 L289.879,135.9141 L285.411,129.86 C284.673,128.8919 284.404,128.6235 283.281,128.1143 L283.281,127.3405 C284.443,127.3833 285.652,127.4571 286.815,127.4571 C287.978,127.4571 289.144,127.3833 290.307,127.3405 L290.307,128.1143 C289.84,128.3476 289.49,128.4293 289.49,129.0086 C289.49,129.2807 289.607,129.7902 289.957,130.2528 L292.087,133.1651 L293.989,130.6416 C294.378,130.0973 294.572,129.6307 294.572,129.3585 C294.572,128.6235 294.109,128.3476 293.487,128.1143 L293.487,127.3405 C294.537,127.3833 295.54,127.4571 296.594,127.4571 C297.601,127.4571 298.647,127.3833 299.658,127.3405 L299.658,128.1143 C298.142,128.4641 297.333,129.3974 296.477,130.4862 L293.172,134.6738 L297.364,140.4945 C297.947,141.2721 298.845,142.2442 299.814,142.5514 L299.814,143.329 C298.647,143.2864 297.523,143.2163 296.357,143.2163 C295.194,143.2163 294.07,143.2864 292.904,143.329 L292.904,142.5514 C293.336,142.5163 293.682,142.0847 293.682,141.6999 C293.682,141.4666 293.371,140.8445 293.06,140.3818 L290.964,137.3956 L288.872,140.2223 C288.635,140.5761 288.324,141.3111 288.324,141.6611 C288.324,142.2832 288.635,142.4775 289.144,142.5514 L289.144,143.329 C288.129,143.2864 287.087,143.2163 286.076,143.2163 C285.221,143.2163 284.404,143.2864 283.553,143.329 L283.553,142.5514 Z" id="Fill-12" fill="#000000"></path>
            <path d="M302.559,131.2948 L302.559,127.6166 C304.188,127.146 305.747,126.9166 307.571,126.9166 C311.024,126.9166 313.971,127.8499 313.971,131.7264 C313.971,133.1261 313.862,135.1404 313.815,137.3528 L313.815,138.7097 C313.815,140.4945 314.122,141.0039 314.982,141.0039 C315.172,141.0039 315.526,140.9261 315.798,140.8445 L316.374,141.4278 L313.465,143.7568 C311.995,143.5663 310.829,142.8235 310.362,141.8554 C309.04,142.8235 307.8,143.7568 306.093,143.7568 C303.453,143.7568 300.852,142.1237 300.852,139.2542 C300.852,135.1404 304.771,133.55 308.305,133.55 C308.928,133.55 309.585,133.6666 310.133,133.6666 C310.133,131.5747 309.978,129.2457 307.333,129.2457 C305.436,129.2457 304.46,129.86 303.492,131.2948 L302.559,131.2948 Z M310.133,135.0626 C309.705,134.9887 308.97,134.8721 308.267,134.8721 C306.482,134.8721 304.616,135.8014 304.616,138.2859 C304.616,140.0706 306.015,141.4278 307.649,141.4278 C308.85,141.4278 309.628,141.1594 310.246,140.7706 L310.133,135.0626 Z" id="Fill-13" fill="#000000"></path>
            <path d="M192.334,117.1804 C193.318,120.5282 190.802,123.0477 189.977,126.0069 C189.756,126.4422 189.153,126.2284 188.772,126.1701 L188.659,125.898 C188.99,123.596 190.747,121.4614 189.697,118.9923 C189.429,118.0046 187.722,118.0046 188.166,116.85 C188.441,116.4689 188.441,115.8118 189.048,115.8661 C190.308,115.7029 192.007,115.6483 192.334,117.1804 Z" id="Fill-14" fill="#000000"></path>
            <path d="M325.624,117.1804 C326.611,120.5282 324.092,123.0477 323.268,126.0069 C323.046,126.4422 322.443,126.2284 322.058,126.1701 L321.949,125.898 C322.28,123.596 324.034,121.4614 322.995,118.9923 C322.715,118.0046 321.02,118.0046 321.456,116.85 C321.728,116.4689 321.728,115.8118 322.334,115.8661 C323.59,115.7029 325.293,115.6483 325.624,117.1804 Z" id="Fill-15" fill="#000000"></path>
            <path d="M320.243,117.1804 C321.23,120.5282 318.707,123.0477 317.886,126.0069 C317.669,126.4422 317.066,126.2284 316.681,126.1701 L316.572,125.898 C316.903,123.596 318.652,121.4614 317.618,118.9923 C317.342,118.0046 315.647,118.0046 316.082,116.85 C316.35,116.4689 316.35,115.8118 316.953,115.8661 C318.213,115.7029 319.916,115.6483 320.243,117.1804 Z" id="Fill-16" fill="#000000"></path>
            <path d="M5.3969,129.86 C5.3969,123.456 8.4667,117.4759 15.0709,117.4759 C21.6772,117.4759 24.745,123.456 24.745,129.86 C24.745,136.268 21.6772,142.252 15.0709,142.252 C8.4667,142.252 5.3969,136.268 5.3969,129.86 Z M0,129.86 C0,138.8381 6.1006,143.885 15.0709,143.885 C24.0413,143.885 30.1419,138.8381 30.1419,129.86 C30.1419,120.8937 24.0413,115.8468 15.0709,115.8468 C6.1006,115.8468 0,120.8937 0,129.86 Z" id="Fill-17" fill="#000000"></path>
            <path d="M37.868,130.0973 C38.7603,129.6307 39.7674,129.2807 40.8192,129.2807 C44.6238,129.2807 46.3327,132.0413 46.3327,135.572 C46.3327,139.4175 43.7763,142.4815 39.8062,142.4815 C38.3735,142.4815 37.868,141.8281 37.868,140.3896 L37.868,130.0973 Z M32.0413,119.2606 C33.3226,119.4977 33.8669,120.7342 33.8669,121.9436 C33.8669,123.3005 34.0962,125.8629 34.0962,129.6695 L34.0962,142.7964 C35.6146,143.4574 38.4881,143.8074 39.9677,143.8074 C45.3257,143.8074 50.5283,141.3965 50.5283,135.222 C50.5283,131.1433 47.2659,126.9517 42.9947,126.9517 C41.2041,126.9517 39.4953,127.4571 37.868,128.3902 L37.9847,115.8468 L37.2479,115.8468 C36.2758,116.9316 34.2947,118.2109 32.0413,118.483 L32.0413,119.2606 Z" id="Fill-18" fill="#000000"></path>
            <path d="M64.3918,131.4154 L63.6162,131.4154 C63.1145,130.7194 62.5294,130.0973 61.1705,130.0973 C59.5372,130.0973 58.5283,132.1542 58.5283,133.3945 C58.5283,134.2539 58.2542,135.6497 58.2542,137.3566 L58.2542,140.7744 C58.2542,141.9448 58.6469,142.4076 59.7318,142.6019 L59.7318,143.3758 C58.6469,143.3407 57.5544,143.2629 56.4694,143.2629 C55.4234,143.2629 54.3697,143.3407 53.3239,143.3758 L53.3239,142.6019 C54.0996,142.4076 54.4864,141.9448 54.4864,140.7744 L54.4864,136.6606 C54.4864,134.8721 54.2921,133.2428 54.2921,131.9597 C54.2921,130.6416 53.7904,130.175 52.5111,129.86 L52.5111,129.0474 C54.4516,128.6626 56.1935,127.6514 57.1694,126.87 L57.947,126.87 L58.0599,130.1322 L58.1395,130.1322 C58.9151,128.9307 60.3927,126.9517 61.9481,126.9517 C62.6829,126.9517 63.6512,127.2588 64.3918,127.7681 L64.3918,131.4154 Z" id="Fill-19" fill="#000000"></path>
            <path d="M74.6394,140.8134 C74.0211,141.2022 73.2455,141.4744 72.042,141.4744 C70.4128,141.4744 69.013,140.1174 69.013,138.3327 C69.013,135.8442 70.8736,134.9109 72.6622,134.9109 C73.3641,134.9109 74.1029,135.0315 74.5305,135.1054 L74.6394,140.8134 Z M67.8855,131.3376 C68.8613,129.9028 69.8257,129.2807 71.7309,129.2807 C74.3751,129.2807 74.5305,131.6097 74.5305,133.7094 C73.9863,133.7094 73.3213,133.5928 72.6992,133.5928 C69.1725,133.5928 65.2472,135.187 65.2472,139.3008 C65.2472,142.1781 67.8504,143.8074 70.4906,143.8074 C72.1975,143.8074 73.4398,142.8741 74.7599,141.902 C75.2305,142.8741 76.3929,143.6091 77.8705,143.8074 L80.7829,141.4744 L80.1997,140.895 C79.9216,140.9689 79.5794,141.0505 79.3791,141.0505 C78.5276,141.0505 78.2167,140.5413 78.2167,138.7603 L78.2167,137.3994 C78.2555,135.187 78.3682,133.1651 78.3682,131.7654 C78.3682,127.881 75.4248,126.9517 71.9662,126.9517 C70.1406,126.9517 68.5892,127.181 66.9561,127.6514 L66.9561,131.3376 L67.8855,131.3376 Z" id="Fill-20" fill="#000000"></path>
            <path d="M106.103,121.5897 L104.626,121.5897 C103.576,118.6385 101.165,117.4759 98.2569,117.4759 C95.6147,117.4759 93.2078,119.6106 93.2078,122.3285 C93.2078,130.525 106.451,125.4741 106.451,135.9997 C106.451,141.0077 102.061,143.885 97.483,143.885 C94.9538,143.885 91.8489,142.9519 90.5716,142.0965 L90.177,137.9399 L91.5768,137.9399 C92.1949,140.5062 94.9129,142.252 97.4402,142.252 C100.357,142.252 102.686,140.3117 102.686,137.3217 C102.686,130.4862 89.4382,134.4444 89.4382,124.3077 C89.4382,119.1439 93.5948,115.8468 98.525,115.8468 C101.13,115.8468 103.772,116.154 106.103,117.3592 L106.103,121.5897 Z" id="Fill-21" fill="#000000"></path>
            <path d="M113.285,135.3815 C113.285,131.8043 114.49,128.5031 118.023,128.5031 C121.557,128.5031 122.763,131.8043 122.763,135.3815 C122.763,138.9508 121.557,142.252 118.023,142.252 C114.49,142.252 113.285,138.9508 113.285,135.3815 Z M109.09,135.3815 C109.09,139.0287 111.734,143.8074 118.023,143.8074 C124.312,143.8074 126.954,139.0287 126.954,135.3815 C126.954,131.7264 124.312,126.9517 118.023,126.9517 C111.734,126.9517 109.09,131.7264 109.09,135.3815 Z" id="Fill-22" fill="#000000"></path>
            <path d="M143.691,131.8393 L142.642,131.8393 C141.872,129.86 140.318,128.5031 138.298,128.5031 C134.725,128.5031 133.247,131.7654 133.247,134.9499 C133.247,138.216 135.578,141.8632 139.539,141.8632 C141.288,141.8632 142.682,141.1672 143.769,139.958 L144.508,140.1562 L143.341,143.0335 C141.79,143.4962 140.161,143.8074 137.987,143.8074 C131.694,143.8074 129.052,139.0287 129.052,135.3815 C129.052,131.7264 131.694,126.9517 137.987,126.9517 C139.892,126.9517 141.714,127.3405 143.462,127.9198 L143.691,131.8393 Z" id="Fill-23" fill="#000000"></path>
            <path d="M151.227,126.9517 C151.227,128.5807 151.384,131.9985 151.384,135.187 L151.384,140.8522 C151.384,142.1781 152.004,142.3686 152.893,142.6019 L152.893,143.3758 C151.736,143.3758 150.566,143.2629 149.401,143.2629 C148.355,143.2629 147.306,143.3407 146.254,143.3758 L146.254,142.6019 C147.187,142.3686 147.619,142.1781 147.619,140.8522 L147.619,136.0347 C147.619,133.2428 147.381,131.6876 147.07,130.8749 C146.761,130.0973 146.372,129.825 145.441,129.6695 L145.441,128.8919 C147.226,128.4641 149.283,127.7255 150.453,126.9517 L151.227,126.9517 Z M149.325,120.3882 C150.453,120.3882 151.464,121.2008 151.464,122.3673 C151.464,123.5339 150.453,124.3503 149.325,124.3503 C148.194,124.3503 147.187,123.5339 147.187,122.3673 C147.187,121.2008 148.194,120.3882 149.325,120.3882 Z" id="Fill-24" fill="#000000"></path>
            <path d="M163.926,140.8134 C163.308,141.2022 162.526,141.4744 161.325,141.4744 C159.696,141.4744 158.296,140.1174 158.296,138.3327 C158.296,135.8442 160.158,134.9109 161.947,134.9109 C162.639,134.9109 163.385,135.0315 163.805,135.1054 L163.926,140.8134 Z M157.164,131.3376 C158.138,129.9028 159.108,129.2807 161.014,129.2807 C163.654,129.2807 163.805,131.6097 163.805,133.7094 C163.265,133.7094 162.604,133.5928 161.99,133.5928 C158.451,133.5928 154.53,135.187 154.53,139.3008 C154.53,142.1781 157.129,143.8074 159.773,143.8074 C161.482,143.8074 162.723,142.8741 164.046,141.902 C164.509,142.8741 165.674,143.6091 167.153,143.8074 L170.062,141.4744 L169.479,140.895 C169.206,140.9689 168.856,141.0505 168.666,141.0505 C167.81,141.0505 167.499,140.5413 167.499,138.7603 L167.499,137.3994 C167.538,135.187 167.653,133.1651 167.653,131.7654 C167.653,127.881 164.706,126.9517 161.247,126.9517 C159.419,126.9517 157.87,127.181 156.239,127.6514 L156.239,131.3376 L157.164,131.3376 Z" id="Fill-25" fill="#000000"></path>
            <path d="M171.15,118.2109 C172.511,118.0204 175.579,116.9316 176.586,115.8468 L177.364,115.8468 C177.325,117.9385 177.206,121.7451 177.206,125.3186 L177.206,140.3896 C177.206,141.7077 177.517,142.4076 178.721,142.6019 L178.721,143.3758 C177.558,143.3758 176.392,143.2629 175.231,143.2629 C174.102,143.2629 173.011,143.3758 171.885,143.3758 L171.885,142.6019 C173.128,142.4076 173.444,141.7077 173.444,140.8522 L173.444,128.2698 C173.444,126.0184 173.242,123.106 173.128,121.6325 C173.052,120.0382 172.387,119.1051 171.15,119.1051 L171.15,118.2109 Z" id="Fill-26" fill="#000000"></path>
        </g>
    </g>
</svg>