<?xml version="1.0" encoding="utf-8"?>
<!-- Generator: Adobe Illustrator 24.0.3, SVG Export Plug-In . SVG Version: 6.00 Build 0)  -->
<svg version="1.1" id="Capa_1" xmlns="http://www.w3.org/2000/svg" xmlns:xlink="http://www.w3.org/1999/xlink" x="0px" y="0px"
	 viewBox="0 0 283.46 283.46" style="enable-background:new 0 0 283.46 283.46;" xml:space="preserve">
<style type="text/css">
	.st0{fill:#1C1C1B;}
	.st1{fill:#E94B23;}
	.st2{fill:#072939;}
	.st3{fill:#FFFFFF;}
</style>
<g>
	<g>
		<rect x="113.56" y="60.35" class="st1" width="54.47" height="54.47"/>
		<polygon class="st2" points="81.13,188.36 85.41,188.36 85.41,187.71 81.87,187.71 81.87,185.22 84.89,185.22 84.89,184.56 
			81.87,184.56 81.87,182.13 85.41,182.13 85.41,181.47 81.13,181.47 		"/>
		<g>
			<path class="st2" d="M90.92,186.03c0,1.04-0.67,1.73-1.68,1.73c-1.01,0-1.67-0.69-1.67-1.73v-4.56h-0.74v4.62
				c0,1.38,1.01,2.34,2.41,2.34c1.39,0,2.41-0.96,2.41-2.34v-4.62h-0.73V186.03z"/>
			<path class="st2" d="M98.24,183.38c0-1.19-0.84-1.92-2.04-1.92h-2.64v6.9h0.74v-3.06h1.66l1.57,3.06h0.86l-1.64-3.13
				C97.63,185.05,98.24,184.39,98.24,183.38 M94.29,184.65v-2.53h1.84c0.81,0,1.38,0.42,1.38,1.27c0,0.84-0.57,1.26-1.38,1.26H94.29
				z"/>
			<path class="st2" d="M102.06,181.41c-0.69,0-1.3,0.25-1.77,0.72c-0.65,0.65-0.65,1.33-0.65,2.79c0,1.46,0,2.14,0.65,2.79
				c0.47,0.46,1.08,0.72,1.77,0.72c0.69,0,1.3-0.25,1.77-0.72c0.65-0.65,0.65-1.33,0.65-2.79c0-1.46,0-2.14-0.65-2.79
				C103.36,181.66,102.75,181.41,102.06,181.41 M103.25,187.27c-0.3,0.31-0.74,0.49-1.19,0.49c-0.46,0-0.89-0.18-1.19-0.49
				c-0.44-0.44-0.48-0.91-0.48-2.35c0-1.45,0.05-1.91,0.48-2.36c0.3-0.31,0.74-0.49,1.19-0.49c0.45,0,0.89,0.18,1.19,0.49
				c0.43,0.45,0.48,0.91,0.48,2.36C103.73,186.36,103.69,186.83,103.25,187.27"/>
			<path class="st2" d="M108.77,181.47h-2.57v6.9h0.73v-2.84h1.83c1.26,0,2.13-0.8,2.13-2.03
				C110.9,182.25,110.03,181.47,108.77,181.47 M108.7,184.87h-1.77v-2.74h1.77c0.86,0,1.46,0.46,1.46,1.37
				C110.17,184.41,109.57,184.87,108.7,184.87"/>
			<polygon class="st2" points="116.59,182.13 116.59,181.47 112.31,181.47 112.31,188.36 116.59,188.36 116.59,187.71 
				113.04,187.71 113.04,185.22 116.07,185.22 116.07,184.56 113.04,184.56 113.04,182.13 			"/>
			<path class="st2" d="M117.24,188.36h0.78l0.56-1.56h3.01l0.55,1.56h0.78l-2.53-6.9h-0.62L117.24,188.36z M121.37,186.17h-2.58
				l1.3-3.64L121.37,186.17z"/>
			<polygon class="st2" points="124.73,181.47 124.04,181.47 124.04,188.36 124.77,188.36 124.77,182.83 128.44,188.36 
				129.13,188.36 129.13,181.47 128.4,181.47 128.4,186.98 			"/>
			<polygon class="st2" points="139.45,188.36 139.45,181.47 138.71,181.47 136.52,186.36 134.28,181.47 133.54,181.47 
				133.54,188.36 134.28,188.36 134.28,183.12 136.19,187.28 136.82,187.28 138.71,183.12 138.71,188.36 			"/>
			<path class="st2" d="M141.9,186.81h3.01l0.55,1.56h0.78l-2.53-6.9h-0.62l-2.54,6.9h0.79L141.9,186.81z M143.42,182.52l1.28,3.64
				h-2.58L143.42,182.52z"/>
			<polygon class="st2" points="148.06,181.47 147.36,181.47 147.36,188.36 148.1,188.36 148.1,182.83 151.76,188.36 152.46,188.36 
				152.46,181.47 151.72,181.47 151.72,186.98 			"/>
			<path class="st2" d="M154.36,181.47v4.62c0,1.38,1.01,2.34,2.4,2.34c1.39,0,2.41-0.96,2.41-2.34v-4.62h-0.74v4.56
				c0,1.04-0.67,1.73-1.68,1.73c-1.01,0-1.67-0.69-1.67-1.73v-4.56H154.36z"/>
			<polygon class="st2" points="165.35,182.13 165.35,181.47 161.07,181.47 161.07,188.36 161.81,188.36 161.81,185.32 
				164.83,185.32 164.83,184.67 161.81,184.67 161.81,182.13 			"/>
			<path class="st2" d="M167.76,181.47l-2.54,6.9h0.79l0.55-1.56h3.02l0.55,1.56h0.79l-2.53-6.9H167.76z M166.78,186.17l1.3-3.64
				l1.28,3.64H166.78z"/>
			<path class="st2" d="M174.08,182.07c0.86,0,1.45,0.55,1.64,1.4h0.76c-0.23-1.3-1.15-2.05-2.39-2.05c-0.68,0-1.3,0.25-1.76,0.72
				c-0.65,0.65-0.65,1.33-0.65,2.79c0,1.46,0,2.14,0.65,2.79c0.46,0.46,1.09,0.72,1.76,0.72c1.23,0,2.17-0.76,2.39-2.05h-0.74
				c-0.18,0.84-0.8,1.39-1.66,1.39c-0.46,0-0.89-0.17-1.19-0.48c-0.44-0.45-0.49-0.92-0.49-2.37c0-1.45,0.05-1.92,0.49-2.37
				C173.18,182.24,173.62,182.07,174.08,182.07"/>
			<polygon class="st2" points="177.2,182.13 179.19,182.13 179.19,188.36 179.93,188.36 179.93,182.13 181.92,182.13 
				181.92,181.47 177.2,181.47 			"/>
			<path class="st2" d="M187.19,186.03c0,1.04-0.67,1.73-1.68,1.73c-1.01,0-1.67-0.69-1.67-1.73v-4.56h-0.74v4.62
				c0,1.38,1.01,2.34,2.4,2.34c1.4,0,2.41-0.96,2.41-2.34v-4.62h-0.74V186.03z"/>
			<path class="st2" d="M194.52,183.38c0-1.19-0.85-1.92-2.05-1.92h-2.64v6.9h0.74v-3.06h1.65l1.57,3.06h0.86l-1.64-3.13
				C193.91,185.05,194.52,184.39,194.52,183.38 M190.56,184.65v-2.53h1.84c0.8,0,1.38,0.42,1.38,1.27c0,0.84-0.57,1.26-1.38,1.26
				H190.56z"/>
			<polygon class="st2" points="196.18,188.36 200.46,188.36 200.46,187.71 196.92,187.71 196.92,185.22 199.94,185.22 
				199.94,184.56 196.92,184.56 196.92,182.13 200.46,182.13 200.46,181.47 196.18,181.47 			"/>
			<path class="st2" d="M111.78,223.45h58.04v-23.07h-58.04V223.45z M112.59,201.19H169v21.45h-56.42V201.19z"/>
			<path class="st2" d="M119.54,211.62l-0.74-0.11c-0.35-0.06-0.7-0.19-0.92-0.37c-0.21-0.18-0.3-0.45-0.3-0.78
				c0-0.75,0.52-1.25,1.43-1.25c0.71,0,1.16,0.2,1.58,0.58l0.46-0.47c-0.58-0.53-1.15-0.74-2.02-0.74c-1.34,0-2.17,0.76-2.17,1.91
				c0,0.54,0.17,0.96,0.51,1.26c0.3,0.26,0.72,0.43,1.25,0.52l0.79,0.12c0.5,0.08,0.66,0.13,0.89,0.32
				c0.22,0.19,0.32,0.49,0.32,0.85c0,0.79-0.61,1.26-1.6,1.26c-0.76,0-1.28-0.18-1.85-0.74l-0.49,0.5c0.64,0.63,1.3,0.89,2.32,0.89
				c1.41,0,2.34-0.73,2.34-1.92c0-0.56-0.2-1.03-0.57-1.34C120.49,211.85,120.18,211.72,119.54,211.62"/>
			<rect x="122.86" y="208.53" class="st2" width="0.72" height="6.77"/>
			<polygon class="st2" points="129.82,213.94 126.22,208.53 125.54,208.53 125.54,215.3 126.26,215.3 126.26,209.87 129.86,215.3 
				130.54,215.3 130.54,208.53 129.82,208.53 			"/>
			<path class="st2" d="M134.62,209.12c0.84,0,1.42,0.54,1.6,1.37h0.74c-0.23-1.27-1.13-2.02-2.35-2.02c-0.67,0-1.28,0.25-1.74,0.71
				c-0.63,0.63-0.63,1.3-0.63,2.74c0,1.43,0,2.1,0.63,2.74c0.46,0.46,1.07,0.7,1.74,0.7c1.21,0,2.13-0.74,2.35-2.02h-0.72
				c-0.18,0.83-0.78,1.37-1.63,1.37c-0.45,0-0.88-0.17-1.17-0.47c-0.43-0.44-0.47-0.9-0.47-2.32c0-1.42,0.05-1.88,0.47-2.32
				C133.74,209.29,134.17,209.12,134.62,209.12"/>
			<polygon class="st2" points="138.56,215.3 142.77,215.3 142.77,214.66 139.29,214.66 139.29,212.21 142.25,212.21 142.25,211.56 
				139.29,211.56 139.29,209.18 142.77,209.18 142.77,208.53 138.56,208.53 			"/>
			<polygon class="st2" points="146.85,209.62 146.85,210.4 148.11,209.29 148.11,215.3 148.8,215.3 148.8,208.53 148.11,208.53 			
				"/>
			<path class="st2" d="M153.09,208.47c-1.15,0-1.88,0.86-1.88,2.01c0,1.11,0.69,1.92,1.76,1.92c0.27,0,0.51-0.05,0.72-0.14
				l-1.52,3.04h0.71l1.66-3.36c0.29-0.57,0.43-1.04,0.43-1.52C154.97,209.25,154.24,208.47,153.09,208.47 M153.09,211.82
				c-0.78,0-1.19-0.62-1.19-1.37c0-0.83,0.47-1.37,1.19-1.37c0.73,0,1.2,0.54,1.2,1.37C154.29,211.29,153.81,211.82,153.09,211.82"
				/>
			<path class="st2" d="M158.21,211.43c-0.26,0-0.5,0.05-0.71,0.14l1.51-3.04h-0.71l-1.67,3.36c-0.29,0.57-0.43,1.04-0.43,1.52
				c0,1.17,0.73,1.95,1.88,1.95c1.15,0,1.88-0.86,1.88-2.01C159.97,212.24,159.26,211.43,158.21,211.43 M158.08,214.75
				c-0.72,0-1.19-0.54-1.19-1.37c0-0.84,0.47-1.37,1.19-1.37c0.78,0,1.2,0.62,1.2,1.37C159.28,214.21,158.81,214.75,158.08,214.75"
				/>
			<path class="st2" d="M163.02,208.47c-1.15,0-1.88,0.86-1.88,2.01c0,1.11,0.69,1.92,1.75,1.92c0.27,0,0.51-0.05,0.72-0.14
				l-1.53,3.04h0.72l1.66-3.36c0.29-0.57,0.43-1.04,0.43-1.52C164.91,209.25,164.17,208.47,163.02,208.47 M163.02,211.82
				c-0.78,0-1.19-0.62-1.19-1.37c0-0.83,0.47-1.37,1.19-1.37c0.72,0,1.2,0.54,1.2,1.37C164.22,211.29,163.74,211.82,163.02,211.82"
				/>
			<path class="st2" d="M93.38,148.71c-1.5-1.4-3.55-2.3-6.8-2.75l-4.2-0.6c-1.45-0.2-2.6-0.75-3.3-1.4
				c-0.75-0.7-1.05-1.65-1.05-2.55c0-2.45,1.8-4.5,5.5-4.5c2.35,0,5.05,0.3,7.3,2.45l4.4-4.35c-3.05-2.95-6.6-4.15-11.5-4.15
				c-7.7,0-12.4,4.45-12.4,10.8c0,3,0.85,5.3,2.55,7c1.6,1.55,3.85,2.5,6.9,2.95l4.3,0.6c1.65,0.25,2.45,0.6,3.15,1.25
				c0.75,0.7,1.1,1.75,1.1,3c0,2.85-2.2,4.4-6.3,4.4c-3.3,0-6.35-0.75-8.6-3l-4.5,4.5c3.5,3.55,7.6,4.7,13,4.7
				c7.45,0,13.21-3.9,13.21-10.8C96.14,153.1,95.29,150.51,93.38,148.71"/>
			<polygon class="st2" points="109.34,166.76 116.29,166.76 116.29,137.35 125.59,137.35 125.59,131.15 100.04,131.15 
				100.04,137.35 109.34,137.35 			"/>
			<path class="st2" d="M144.65,155.06v-23.91h-6.95v23.61c0,4.1-2.2,6.1-5.6,6.1c-2.3,0-3.4-0.85-4.55-2l-4.6,4.55
				c2.65,2.65,5.3,3.65,9.15,3.65C138.7,167.06,144.65,162.91,144.65,155.06"/>
			<path class="st2" d="M154.8,134.75c-3.6,3.6-3.5,8.05-3.5,14.2c0,6.15-0.1,10.6,3.5,14.2c2.5,2.5,5.6,3.9,9.65,3.9
				c4.05,0,7.1-1.4,9.6-3.9c3.6-3.6,3.55-8.05,3.55-14.2c0-6.15,0.05-10.6-3.55-14.2c-2.5-2.5-5.55-3.9-9.6-3.9
				C160.4,130.85,157.3,132.25,154.8,134.75 M168.9,138.95c1.35,1.5,1.75,3.15,1.75,10c0,6.85-0.4,8.5-1.75,10
				c-1,1.15-2.55,1.9-4.45,1.9s-3.5-0.75-4.5-1.9c-1.35-1.5-1.7-3.15-1.7-10c0-6.85,0.35-8.5,1.7-10c1-1.15,2.6-1.9,4.5-1.9
				S167.9,137.8,168.9,138.95"/>
			<path class="st2" d="M203.71,151.41c3.45-1.25,6.5-4.35,6.5-9.35c0-5.95-4.3-10.9-11.55-10.9H184.7v35.61h6.95v-14.21h5
				l6.95,14.21h8.05L203.71,151.41z M198.21,146.76h-6.55v-9.4h6.55c3.05,0,5.05,1.95,5.05,4.7
				C203.26,144.8,201.26,146.76,198.21,146.76"/>
			<polygon class="st3" points="158.85,87.59 155.76,90.67 150.28,85.19 143.88,91.59 150.85,98.56 147.77,101.64 140.8,94.67 
				133.83,101.64 130.74,98.56 137.71,91.59 131.31,85.19 125.83,90.67 122.74,87.59 128.23,82.1 122.74,76.62 125.83,73.53 
				131.31,79.01 136.8,73.53 139.88,76.62 134.4,82.1 140.8,88.5 147.19,82.1 141.71,76.62 144.79,73.53 150.28,79.01 155.76,73.53 
				158.85,76.62 153.37,82.1 			"/>
		</g>
	</g>
</g>
</svg>
